%YAML 1.1
%TAG !u! tag:unity3d.com,2011:
--- !u!1 &438459682740613167
GameObject:
  m_ObjectHideFlags: 0
  m_CorrespondingSourceObject: {fileID: 0}
  m_PrefabInstance: {fileID: 0}
  m_PrefabAsset: {fileID: 0}
  serializedVersion: 6
  m_Component:
  - component: {fileID: 3128432547429651859}
  - component: {fileID: 1056369347103536993}
  m_Layer: 0
  m_Name: Level_001Ground
  m_TagString: Untagged
  m_Icon: {fileID: 0}
  m_NavMeshLayer: 0
  m_StaticEditorFlags: 0
  m_IsActive: 1
--- !u!4 &3128432547429651859
Transform:
  m_ObjectHideFlags: 0
  m_CorrespondingSourceObject: {fileID: 0}
  m_PrefabInstance: {fileID: 0}
  m_PrefabAsset: {fileID: 0}
  m_GameObject: {fileID: 438459682740613167}
  m_LocalRotation: {x: 0, y: 0, z: 0, w: 1}
  m_LocalPosition: {x: 0, y: 0, z: 0}
  m_LocalScale: {x: 1, y: 1, z: 1}
  m_Children:
  - {fileID: 1562083196904473359}
  m_Father: {fileID: 0}
  m_RootOrder: 0
  m_LocalEulerAnglesHint: {x: 0, y: 0, z: 0}
--- !u!156049354 &1056369347103536993
Grid:
  m_ObjectHideFlags: 0
  m_CorrespondingSourceObject: {fileID: 0}
  m_PrefabInstance: {fileID: 0}
  m_PrefabAsset: {fileID: 0}
  m_GameObject: {fileID: 438459682740613167}
  m_Enabled: 1
  m_CellSize: {x: 1.0625, y: 1.0625, z: 0}
  m_CellGap: {x: 0, y: 0, z: 0}
  m_CellLayout: 0
  m_CellSwizzle: 0
--- !u!1 &9062174768955830742
GameObject:
  m_ObjectHideFlags: 0
  m_CorrespondingSourceObject: {fileID: 0}
  m_PrefabInstance: {fileID: 0}
  m_PrefabAsset: {fileID: 0}
  serializedVersion: 6
  m_Component:
  - component: {fileID: 1562083196904473359}
  - component: {fileID: 5386997382334115100}
  - component: {fileID: 1998979785004004486}
  m_Layer: 0
  m_Name: Layer1
  m_TagString: Untagged
  m_Icon: {fileID: 0}
  m_NavMeshLayer: 0
  m_StaticEditorFlags: 0
  m_IsActive: 1
--- !u!4 &1562083196904473359
Transform:
  m_ObjectHideFlags: 0
  m_CorrespondingSourceObject: {fileID: 0}
  m_PrefabInstance: {fileID: 0}
  m_PrefabAsset: {fileID: 0}
  m_GameObject: {fileID: 9062174768955830742}
  m_LocalRotation: {x: -0, y: -0, z: -0, w: 1}
  m_LocalPosition: {x: 0, y: 0, z: 0}
  m_LocalScale: {x: 1, y: 1, z: 1}
  m_Children: []
  m_Father: {fileID: 3128432547429651859}
  m_RootOrder: 0
  m_LocalEulerAnglesHint: {x: 0, y: 0, z: 0}
--- !u!1839735485 &5386997382334115100
Tilemap:
  m_ObjectHideFlags: 0
  m_CorrespondingSourceObject: {fileID: 0}
  m_PrefabInstance: {fileID: 0}
  m_PrefabAsset: {fileID: 0}
  m_GameObject: {fileID: 9062174768955830742}
  m_Enabled: 1
  m_Tiles:
  - first: {x: 4, y: -11, z: 0}
    second:
      serializedVersion: 2
      m_TileIndex: 36
      m_TileSpriteIndex: 36
      m_TileMatrixIndex: 0
      m_TileColorIndex: 0
      m_TileObjectToInstantiateIndex: 65535
      dummyAlignment: 0
      m_AllTileFlags: 1073741825
  - first: {x: 4, y: -10, z: 0}
    second:
      serializedVersion: 2
      m_TileIndex: 39
      m_TileSpriteIndex: 39
      m_TileMatrixIndex: 0
      m_TileColorIndex: 0
      m_TileObjectToInstantiateIndex: 65535
      dummyAlignment: 0
      m_AllTileFlags: 1073741825
  - first: {x: 5, y: -10, z: 0}
    second:
      serializedVersion: 2
      m_TileIndex: 38
      m_TileSpriteIndex: 38
      m_TileMatrixIndex: 0
      m_TileColorIndex: 0
      m_TileObjectToInstantiateIndex: 65535
      dummyAlignment: 0
      m_AllTileFlags: 1073741825
  - first: {x: 6, y: -10, z: 0}
    second:
      serializedVersion: 2
      m_TileIndex: 37
      m_TileSpriteIndex: 37
      m_TileMatrixIndex: 0
      m_TileColorIndex: 0
      m_TileObjectToInstantiateIndex: 65535
      dummyAlignment: 0
      m_AllTileFlags: 1073741825
  - first: {x: 4, y: -9, z: 0}
    second:
      serializedVersion: 2
      m_TileIndex: 42
      m_TileSpriteIndex: 42
      m_TileMatrixIndex: 0
      m_TileColorIndex: 0
      m_TileObjectToInstantiateIndex: 65535
      dummyAlignment: 0
      m_AllTileFlags: 1073741825
  - first: {x: 5, y: -9, z: 0}
    second:
      serializedVersion: 2
      m_TileIndex: 41
      m_TileSpriteIndex: 41
      m_TileMatrixIndex: 0
      m_TileColorIndex: 0
      m_TileObjectToInstantiateIndex: 65535
      dummyAlignment: 0
      m_AllTileFlags: 1073741825
  - first: {x: 6, y: -9, z: 0}
    second:
      serializedVersion: 2
      m_TileIndex: 40
      m_TileSpriteIndex: 40
      m_TileMatrixIndex: 0
      m_TileColorIndex: 0
      m_TileObjectToInstantiateIndex: 65535
      dummyAlignment: 0
      m_AllTileFlags: 1073741825
  - first: {x: 4, y: -8, z: 0}
    second:
      serializedVersion: 2
      m_TileIndex: 45
      m_TileSpriteIndex: 45
      m_TileMatrixIndex: 0
      m_TileColorIndex: 0
      m_TileObjectToInstantiateIndex: 65535
      dummyAlignment: 0
      m_AllTileFlags: 1073741825
  - first: {x: 5, y: -8, z: 0}
    second:
      serializedVersion: 2
      m_TileIndex: 44
      m_TileSpriteIndex: 44
      m_TileMatrixIndex: 0
      m_TileColorIndex: 0
      m_TileObjectToInstantiateIndex: 65535
      dummyAlignment: 0
      m_AllTileFlags: 1073741825
  - first: {x: 6, y: -8, z: 0}
    second:
      serializedVersion: 2
      m_TileIndex: 43
      m_TileSpriteIndex: 43
      m_TileMatrixIndex: 0
      m_TileColorIndex: 0
      m_TileObjectToInstantiateIndex: 65535
      dummyAlignment: 0
      m_AllTileFlags: 1073741825
  - first: {x: -1, y: -6, z: 0}
    second:
      serializedVersion: 2
      m_TileIndex: 30
      m_TileSpriteIndex: 30
      m_TileMatrixIndex: 0
      m_TileColorIndex: 0
      m_TileObjectToInstantiateIndex: 65535
      dummyAlignment: 0
      m_AllTileFlags: 1073741825
  - first: {x: 0, y: -6, z: 0}
    second:
      serializedVersion: 2
      m_TileIndex: 31
      m_TileSpriteIndex: 31
      m_TileMatrixIndex: 0
      m_TileColorIndex: 0
      m_TileObjectToInstantiateIndex: 65535
      dummyAlignment: 0
      m_AllTileFlags: 1073741825
  - first: {x: 1, y: -6, z: 0}
    second:
      serializedVersion: 2
      m_TileIndex: 32
      m_TileSpriteIndex: 32
      m_TileMatrixIndex: 0
      m_TileColorIndex: 0
      m_TileObjectToInstantiateIndex: 65535
      dummyAlignment: 0
      m_AllTileFlags: 1073741825
  - first: {x: 2, y: -6, z: 0}
    second:
      serializedVersion: 2
      m_TileIndex: 33
      m_TileSpriteIndex: 33
      m_TileMatrixIndex: 0
      m_TileColorIndex: 0
      m_TileObjectToInstantiateIndex: 65535
      dummyAlignment: 0
      m_AllTileFlags: 1073741825
  - first: {x: 3, y: -6, z: 0}
    second:
      serializedVersion: 2
      m_TileIndex: 34
      m_TileSpriteIndex: 34
      m_TileMatrixIndex: 0
      m_TileColorIndex: 0
      m_TileObjectToInstantiateIndex: 65535
      dummyAlignment: 0
      m_AllTileFlags: 1073741825
  - first: {x: 4, y: -6, z: 0}
    second:
      serializedVersion: 2
      m_TileIndex: 35
      m_TileSpriteIndex: 35
      m_TileMatrixIndex: 0
      m_TileColorIndex: 0
      m_TileObjectToInstantiateIndex: 65535
      dummyAlignment: 0
      m_AllTileFlags: 1073741825
  - first: {x: -1, y: -5, z: 0}
    second:
      serializedVersion: 2
      m_TileIndex: 24
      m_TileSpriteIndex: 24
      m_TileMatrixIndex: 0
      m_TileColorIndex: 0
      m_TileObjectToInstantiateIndex: 65535
      dummyAlignment: 0
      m_AllTileFlags: 1073741825
  - first: {x: 0, y: -5, z: 0}
    second:
      serializedVersion: 2
      m_TileIndex: 25
      m_TileSpriteIndex: 25
      m_TileMatrixIndex: 0
      m_TileColorIndex: 0
      m_TileObjectToInstantiateIndex: 65535
      dummyAlignment: 0
      m_AllTileFlags: 1073741825
  - first: {x: 1, y: -5, z: 0}
    second:
      serializedVersion: 2
      m_TileIndex: 26
      m_TileSpriteIndex: 26
      m_TileMatrixIndex: 0
      m_TileColorIndex: 0
      m_TileObjectToInstantiateIndex: 65535
      dummyAlignment: 0
      m_AllTileFlags: 1073741825
  - first: {x: 2, y: -5, z: 0}
    second:
      serializedVersion: 2
      m_TileIndex: 27
      m_TileSpriteIndex: 27
      m_TileMatrixIndex: 0
      m_TileColorIndex: 0
      m_TileObjectToInstantiateIndex: 65535
      dummyAlignment: 0
      m_AllTileFlags: 1073741825
  - first: {x: 3, y: -5, z: 0}
    second:
      serializedVersion: 2
      m_TileIndex: 28
      m_TileSpriteIndex: 28
      m_TileMatrixIndex: 0
      m_TileColorIndex: 0
      m_TileObjectToInstantiateIndex: 65535
      dummyAlignment: 0
      m_AllTileFlags: 1073741825
  - first: {x: 4, y: -5, z: 0}
    second:
      serializedVersion: 2
      m_TileIndex: 29
      m_TileSpriteIndex: 29
      m_TileMatrixIndex: 0
      m_TileColorIndex: 0
      m_TileObjectToInstantiateIndex: 65535
      dummyAlignment: 0
      m_AllTileFlags: 1073741825
  - first: {x: -1, y: -4, z: 0}
    second:
      serializedVersion: 2
      m_TileIndex: 18
      m_TileSpriteIndex: 18
      m_TileMatrixIndex: 0
      m_TileColorIndex: 0
      m_TileObjectToInstantiateIndex: 65535
      dummyAlignment: 0
      m_AllTileFlags: 1073741825
  - first: {x: 0, y: -4, z: 0}
    second:
      serializedVersion: 2
      m_TileIndex: 19
      m_TileSpriteIndex: 19
      m_TileMatrixIndex: 0
      m_TileColorIndex: 0
      m_TileObjectToInstantiateIndex: 65535
      dummyAlignment: 0
      m_AllTileFlags: 1073741825
  - first: {x: 1, y: -4, z: 0}
    second:
      serializedVersion: 2
      m_TileIndex: 20
      m_TileSpriteIndex: 20
      m_TileMatrixIndex: 0
      m_TileColorIndex: 0
      m_TileObjectToInstantiateIndex: 65535
      dummyAlignment: 0
      m_AllTileFlags: 1073741825
  - first: {x: 2, y: -4, z: 0}
    second:
      serializedVersion: 2
      m_TileIndex: 21
      m_TileSpriteIndex: 21
      m_TileMatrixIndex: 0
      m_TileColorIndex: 0
      m_TileObjectToInstantiateIndex: 65535
      dummyAlignment: 0
      m_AllTileFlags: 1073741825
  - first: {x: 3, y: -4, z: 0}
    second:
      serializedVersion: 2
      m_TileIndex: 22
      m_TileSpriteIndex: 22
      m_TileMatrixIndex: 0
      m_TileColorIndex: 0
      m_TileObjectToInstantiateIndex: 65535
      dummyAlignment: 0
      m_AllTileFlags: 1073741825
  - first: {x: 4, y: -4, z: 0}
    second:
      serializedVersion: 2
      m_TileIndex: 23
      m_TileSpriteIndex: 23
      m_TileMatrixIndex: 0
      m_TileColorIndex: 0
      m_TileObjectToInstantiateIndex: 65535
      dummyAlignment: 0
      m_AllTileFlags: 1073741825
  - first: {x: -1, y: -3, z: 0}
    second:
      serializedVersion: 2
      m_TileIndex: 12
      m_TileSpriteIndex: 12
      m_TileMatrixIndex: 0
      m_TileColorIndex: 0
      m_TileObjectToInstantiateIndex: 65535
      dummyAlignment: 0
      m_AllTileFlags: 1073741825
  - first: {x: 0, y: -3, z: 0}
    second:
      serializedVersion: 2
      m_TileIndex: 13
      m_TileSpriteIndex: 13
      m_TileMatrixIndex: 0
      m_TileColorIndex: 0
      m_TileObjectToInstantiateIndex: 65535
      dummyAlignment: 0
      m_AllTileFlags: 1073741825
  - first: {x: 1, y: -3, z: 0}
    second:
      serializedVersion: 2
      m_TileIndex: 14
      m_TileSpriteIndex: 14
      m_TileMatrixIndex: 0
      m_TileColorIndex: 0
      m_TileObjectToInstantiateIndex: 65535
      dummyAlignment: 0
      m_AllTileFlags: 1073741825
  - first: {x: 2, y: -3, z: 0}
    second:
      serializedVersion: 2
      m_TileIndex: 15
      m_TileSpriteIndex: 15
      m_TileMatrixIndex: 0
      m_TileColorIndex: 0
      m_TileObjectToInstantiateIndex: 65535
      dummyAlignment: 0
      m_AllTileFlags: 1073741825
  - first: {x: 3, y: -3, z: 0}
    second:
      serializedVersion: 2
      m_TileIndex: 16
      m_TileSpriteIndex: 16
      m_TileMatrixIndex: 0
      m_TileColorIndex: 0
      m_TileObjectToInstantiateIndex: 65535
      dummyAlignment: 0
      m_AllTileFlags: 1073741825
  - first: {x: 4, y: -3, z: 0}
    second:
      serializedVersion: 2
      m_TileIndex: 17
      m_TileSpriteIndex: 17
      m_TileMatrixIndex: 0
      m_TileColorIndex: 0
      m_TileObjectToInstantiateIndex: 65535
      dummyAlignment: 0
      m_AllTileFlags: 1073741825
  - first: {x: -1, y: -2, z: 0}
    second:
      serializedVersion: 2
      m_TileIndex: 6
      m_TileSpriteIndex: 6
      m_TileMatrixIndex: 0
      m_TileColorIndex: 0
      m_TileObjectToInstantiateIndex: 65535
      dummyAlignment: 0
      m_AllTileFlags: 1073741825
  - first: {x: 0, y: -2, z: 0}
    second:
      serializedVersion: 2
      m_TileIndex: 7
      m_TileSpriteIndex: 7
      m_TileMatrixIndex: 0
      m_TileColorIndex: 0
      m_TileObjectToInstantiateIndex: 65535
      dummyAlignment: 0
      m_AllTileFlags: 1073741825
  - first: {x: 1, y: -2, z: 0}
    second:
      serializedVersion: 2
      m_TileIndex: 8
      m_TileSpriteIndex: 8
      m_TileMatrixIndex: 0
      m_TileColorIndex: 0
      m_TileObjectToInstantiateIndex: 65535
      dummyAlignment: 0
      m_AllTileFlags: 1073741825
  - first: {x: 2, y: -2, z: 0}
    second:
      serializedVersion: 2
      m_TileIndex: 9
      m_TileSpriteIndex: 9
      m_TileMatrixIndex: 0
      m_TileColorIndex: 0
      m_TileObjectToInstantiateIndex: 65535
      dummyAlignment: 0
      m_AllTileFlags: 1073741825
  - first: {x: 3, y: -2, z: 0}
    second:
      serializedVersion: 2
      m_TileIndex: 10
      m_TileSpriteIndex: 10
      m_TileMatrixIndex: 0
      m_TileColorIndex: 0
      m_TileObjectToInstantiateIndex: 65535
      dummyAlignment: 0
      m_AllTileFlags: 1073741825
  - first: {x: 4, y: -2, z: 0}
    second:
      serializedVersion: 2
      m_TileIndex: 11
      m_TileSpriteIndex: 11
      m_TileMatrixIndex: 0
      m_TileColorIndex: 0
      m_TileObjectToInstantiateIndex: 65535
      dummyAlignment: 0
      m_AllTileFlags: 1073741825
  - first: {x: -1, y: -1, z: 0}
    second:
      serializedVersion: 2
      m_TileIndex: 0
      m_TileSpriteIndex: 0
      m_TileMatrixIndex: 0
      m_TileColorIndex: 0
      m_TileObjectToInstantiateIndex: 65535
      dummyAlignment: 0
      m_AllTileFlags: 1073741825
  - first: {x: 0, y: -1, z: 0}
    second:
      serializedVersion: 2
      m_TileIndex: 1
      m_TileSpriteIndex: 1
      m_TileMatrixIndex: 0
      m_TileColorIndex: 0
      m_TileObjectToInstantiateIndex: 65535
      dummyAlignment: 0
      m_AllTileFlags: 1073741825
  - first: {x: 1, y: -1, z: 0}
    second:
      serializedVersion: 2
      m_TileIndex: 2
      m_TileSpriteIndex: 2
      m_TileMatrixIndex: 0
      m_TileColorIndex: 0
      m_TileObjectToInstantiateIndex: 65535
      dummyAlignment: 0
      m_AllTileFlags: 1073741825
  - first: {x: 2, y: -1, z: 0}
    second:
      serializedVersion: 2
      m_TileIndex: 3
      m_TileSpriteIndex: 3
      m_TileMatrixIndex: 0
      m_TileColorIndex: 0
      m_TileObjectToInstantiateIndex: 65535
      dummyAlignment: 0
      m_AllTileFlags: 1073741825
  - first: {x: 3, y: -1, z: 0}
    second:
      serializedVersion: 2
      m_TileIndex: 4
      m_TileSpriteIndex: 4
      m_TileMatrixIndex: 0
      m_TileColorIndex: 0
      m_TileObjectToInstantiateIndex: 65535
      dummyAlignment: 0
      m_AllTileFlags: 1073741825
  - first: {x: 4, y: -1, z: 0}
    second:
      serializedVersion: 2
      m_TileIndex: 5
      m_TileSpriteIndex: 5
      m_TileMatrixIndex: 0
      m_TileColorIndex: 0
      m_TileObjectToInstantiateIndex: 65535
      dummyAlignment: 0
      m_AllTileFlags: 1073741825
  m_AnimatedTiles: {}
  m_TileAssetArray:
  - m_RefCount: 1
    m_Data: {fileID: 11400000, guid: 2a3d164eae43942c1b782c2b72f0d572, type: 2}
  - m_RefCount: 1
    m_Data: {fileID: 11400000, guid: 82ca61b096cfd411f936a0a3abd486db, type: 2}
  - m_RefCount: 1
    m_Data: {fileID: 11400000, guid: c40aad5dc8f3743dd8cdf9b9f83d430e, type: 2}
  - m_RefCount: 1
    m_Data: {fileID: 11400000, guid: 7a8a33d5e0a29450bb7f7827990f0c48, type: 2}
  - m_RefCount: 1
    m_Data: {fileID: 11400000, guid: 7090626ae36cd4e36ae6927799e82d35, type: 2}
  - m_RefCount: 1
    m_Data: {fileID: 11400000, guid: cac119e2baa144355a62a0b2f5fc066d, type: 2}
  - m_RefCount: 1
    m_Data: {fileID: 11400000, guid: d6f76f7b69d2c454aabfcb50ef964761, type: 2}
  - m_RefCount: 1
    m_Data: {fileID: 11400000, guid: cb0bac9d2c4b947bb8ec6ccba1ae108f, type: 2}
  - m_RefCount: 1
    m_Data: {fileID: 11400000, guid: 5dfbf5f44a8f249eba1145426a24d589, type: 2}
  - m_RefCount: 1
    m_Data: {fileID: 11400000, guid: 76fada3860fe8429688dafb8d958d3e7, type: 2}
  - m_RefCount: 1
    m_Data: {fileID: 11400000, guid: 3257ba27425c547c597c5f7fc84e99b7, type: 2}
  - m_RefCount: 1
    m_Data: {fileID: 11400000, guid: 451fb9a1525704a8a8e140e57882bcd2, type: 2}
  - m_RefCount: 1
    m_Data: {fileID: 11400000, guid: 08a58d039e8b043e9a147ec69501891a, type: 2}
  - m_RefCount: 1
    m_Data: {fileID: 11400000, guid: 9697bb371238d4492ad4d5b3821169f0, type: 2}
  - m_RefCount: 1
    m_Data: {fileID: 11400000, guid: d6c70fb330eef4dc5a5e1d020c692a59, type: 2}
  - m_RefCount: 1
    m_Data: {fileID: 11400000, guid: ce91c19498e104274a731e02e62f0f6d, type: 2}
  - m_RefCount: 1
    m_Data: {fileID: 11400000, guid: bf9efa650c64a4f908bc7882fdb77eea, type: 2}
  - m_RefCount: 1
    m_Data: {fileID: 11400000, guid: 217ad333d0e35450991428916fe57969, type: 2}
  - m_RefCount: 1
    m_Data: {fileID: 11400000, guid: b6368f5dd3e8d4f6691767df14266373, type: 2}
  - m_RefCount: 1
    m_Data: {fileID: 11400000, guid: c92cf475c046946128ec7a03f5e002a1, type: 2}
  - m_RefCount: 1
    m_Data: {fileID: 11400000, guid: 871b0d29deb1b47e9a2a82bc48e0af3e, type: 2}
  - m_RefCount: 1
    m_Data: {fileID: 11400000, guid: c34ec87013fcb4f038a64562216a204d, type: 2}
  - m_RefCount: 1
    m_Data: {fileID: 11400000, guid: c75c4f4a16fbd4c959e4268f63378dec, type: 2}
  - m_RefCount: 1
    m_Data: {fileID: 11400000, guid: 677c42863bdfe4f8b9434a8fbc6041f9, type: 2}
  - m_RefCount: 1
    m_Data: {fileID: 11400000, guid: 337b480d68ba943eeabad3cbed7727ab, type: 2}
  - m_RefCount: 1
    m_Data: {fileID: 11400000, guid: c657b5bebef2a4b029fce6ec361ad35b, type: 2}
  - m_RefCount: 1
    m_Data: {fileID: 11400000, guid: 9aea1c26025a342289b8c5eedb60509f, type: 2}
  - m_RefCount: 1
    m_Data: {fileID: 11400000, guid: 3b7a15cfa696c4129b2677c61b3d37ff, type: 2}
  - m_RefCount: 1
    m_Data: {fileID: 11400000, guid: 1380269678d214b46ba52927ca4783ec, type: 2}
  - m_RefCount: 1
    m_Data: {fileID: 11400000, guid: bb0870fb253094a9dba65c296e612895, type: 2}
  - m_RefCount: 1
    m_Data: {fileID: 11400000, guid: ed991f963ebf24f8b8ee1644ec4d75f6, type: 2}
  - m_RefCount: 1
    m_Data: {fileID: 11400000, guid: 972ec2b453d414eb9a78535b355e0b7e, type: 2}
  - m_RefCount: 1
    m_Data: {fileID: 11400000, guid: f1cb578276508461ebf9987f20e12a24, type: 2}
  - m_RefCount: 1
    m_Data: {fileID: 11400000, guid: 754d5a99532424a9296157fa140c428d, type: 2}
  - m_RefCount: 1
    m_Data: {fileID: 11400000, guid: 44779d4195a8f42bab149ad824dc5139, type: 2}
  - m_RefCount: 1
    m_Data: {fileID: 11400000, guid: 43578ba01822f4ef58fa99c16eaf9128, type: 2}
  - m_RefCount: 1
    m_Data: {fileID: 11400000, guid: 1c753a878fea8ef4da68bb2f802ea10d, type: 2}
  - m_RefCount: 1
    m_Data: {fileID: 11400000, guid: f24c55b5ced3d414185d92837eb1530b, type: 2}
  - m_RefCount: 1
    m_Data: {fileID: 11400000, guid: b8b2a415f9d2e8c49b232c4544de1e10, type: 2}
  - m_RefCount: 1
    m_Data: {fileID: 11400000, guid: fd403f4029b9913419a3706d7ce67b6d, type: 2}
  - m_RefCount: 1
    m_Data: {fileID: 11400000, guid: ae9f8975f0280054e92107b952ce7d07, type: 2}
  - m_RefCount: 1
    m_Data: {fileID: 11400000, guid: 71777b1e2a59bef4585197b9bcc770d6, type: 2}
  - m_RefCount: 1
    m_Data: {fileID: 11400000, guid: 27a1305a35f23a64eafd3840d482925f, type: 2}
  - m_RefCount: 1
    m_Data: {fileID: 11400000, guid: fbeba624ca129b6428174d14ebe17708, type: 2}
  - m_RefCount: 1
    m_Data: {fileID: 11400000, guid: 9a02a0c8efefc734bb268fbed17beb9b, type: 2}
  - m_RefCount: 1
    m_Data: {fileID: 11400000, guid: 8a60472020dac154fb4ca80738bcacc1, type: 2}
  m_TileSpriteArray:
  - m_RefCount: 1
    m_Data: {fileID: 8537651536920830917, guid: 7191a26c3aa3e40c38c12a2771767556, type: 3}
  - m_RefCount: 1
    m_Data: {fileID: 2097702617349663825, guid: 7191a26c3aa3e40c38c12a2771767556, type: 3}
  - m_RefCount: 1
    m_Data: {fileID: 4957045185305522080, guid: 7191a26c3aa3e40c38c12a2771767556, type: 3}
  - m_RefCount: 1
    m_Data: {fileID: -5641712530122005352, guid: 7191a26c3aa3e40c38c12a2771767556, type: 3}
  - m_RefCount: 1
    m_Data: {fileID: -429959906181099326, guid: 7191a26c3aa3e40c38c12a2771767556, type: 3}
  - m_RefCount: 1
    m_Data: {fileID: 1290571919319623517, guid: 7191a26c3aa3e40c38c12a2771767556, type: 3}
  - m_RefCount: 1
    m_Data: {fileID: 8625190693002769308, guid: 7191a26c3aa3e40c38c12a2771767556, type: 3}
  - m_RefCount: 1
    m_Data: {fileID: -7425697577321335290, guid: 7191a26c3aa3e40c38c12a2771767556, type: 3}
  - m_RefCount: 1
    m_Data: {fileID: -79306799469508579, guid: 7191a26c3aa3e40c38c12a2771767556, type: 3}
  - m_RefCount: 1
    m_Data: {fileID: 3930985743609300040, guid: 7191a26c3aa3e40c38c12a2771767556, type: 3}
  - m_RefCount: 1
    m_Data: {fileID: 5999395695199251347, guid: 7191a26c3aa3e40c38c12a2771767556, type: 3}
  - m_RefCount: 1
    m_Data: {fileID: -6785098178125120784, guid: 7191a26c3aa3e40c38c12a2771767556, type: 3}
  - m_RefCount: 1
    m_Data: {fileID: 2557669190468724559, guid: 7191a26c3aa3e40c38c12a2771767556, type: 3}
  - m_RefCount: 1
    m_Data: {fileID: -3538781675841943732, guid: 7191a26c3aa3e40c38c12a2771767556, type: 3}
  - m_RefCount: 1
    m_Data: {fileID: -8776811670242405126, guid: 7191a26c3aa3e40c38c12a2771767556, type: 3}
  - m_RefCount: 1
    m_Data: {fileID: 7855418110897177041, guid: 7191a26c3aa3e40c38c12a2771767556, type: 3}
  - m_RefCount: 1
    m_Data: {fileID: -6535339056072157310, guid: 7191a26c3aa3e40c38c12a2771767556, type: 3}
  - m_RefCount: 1
    m_Data: {fileID: -829285371938577886, guid: 7191a26c3aa3e40c38c12a2771767556, type: 3}
  - m_RefCount: 1
    m_Data: {fileID: -3405914164742144988, guid: 7191a26c3aa3e40c38c12a2771767556, type: 3}
  - m_RefCount: 1
    m_Data: {fileID: 7676123537625980809, guid: 7191a26c3aa3e40c38c12a2771767556, type: 3}
  - m_RefCount: 1
    m_Data: {fileID: 8640776830150050163, guid: 7191a26c3aa3e40c38c12a2771767556, type: 3}
  - m_RefCount: 1
    m_Data: {fileID: 4918954326973655007, guid: 7191a26c3aa3e40c38c12a2771767556, type: 3}
  - m_RefCount: 1
    m_Data: {fileID: -4405744225997740028, guid: 7191a26c3aa3e40c38c12a2771767556, type: 3}
  - m_RefCount: 1
    m_Data: {fileID: 7002414360627261995, guid: 7191a26c3aa3e40c38c12a2771767556, type: 3}
  - m_RefCount: 1
    m_Data: {fileID: 1055910621158681980, guid: 7191a26c3aa3e40c38c12a2771767556, type: 3}
  - m_RefCount: 1
    m_Data: {fileID: -5162037417038582772, guid: 7191a26c3aa3e40c38c12a2771767556, type: 3}
  - m_RefCount: 1
    m_Data: {fileID: -4676414299732812077, guid: 7191a26c3aa3e40c38c12a2771767556, type: 3}
  - m_RefCount: 1
    m_Data: {fileID: -5402834211872792866, guid: 7191a26c3aa3e40c38c12a2771767556, type: 3}
  - m_RefCount: 1
    m_Data: {fileID: -1369627465339546951, guid: 7191a26c3aa3e40c38c12a2771767556, type: 3}
  - m_RefCount: 1
    m_Data: {fileID: -2131934207796003492, guid: 7191a26c3aa3e40c38c12a2771767556, type: 3}
  - m_RefCount: 1
    m_Data: {fileID: 8879498155262014745, guid: 7191a26c3aa3e40c38c12a2771767556, type: 3}
  - m_RefCount: 1
    m_Data: {fileID: 3281109055902086043, guid: 7191a26c3aa3e40c38c12a2771767556, type: 3}
  - m_RefCount: 1
    m_Data: {fileID: 1450956198460861597, guid: 7191a26c3aa3e40c38c12a2771767556, type: 3}
  - m_RefCount: 1
    m_Data: {fileID: 3634786099969567965, guid: 7191a26c3aa3e40c38c12a2771767556, type: 3}
  - m_RefCount: 1
    m_Data: {fileID: 1591334146556337513, guid: 7191a26c3aa3e40c38c12a2771767556, type: 3}
  - m_RefCount: 1
    m_Data: {fileID: -6537160563541904516, guid: 7191a26c3aa3e40c38c12a2771767556, type: 3}
  - m_RefCount: 1
    m_Data: {fileID: 8061335491658179038, guid: a9e87e78daa1f604dbe7ead516e08968, type: 3}
  - m_RefCount: 1
    m_Data: {fileID: 4696455222554489762, guid: a9e87e78daa1f604dbe7ead516e08968, type: 3}
  - m_RefCount: 1
    m_Data: {fileID: 315335625827180860, guid: a9e87e78daa1f604dbe7ead516e08968, type: 3}
  - m_RefCount: 1
    m_Data: {fileID: 5261410323978950483, guid: a9e87e78daa1f604dbe7ead516e08968, type: 3}
  - m_RefCount: 1
    m_Data: {fileID: -8452540421712465831, guid: a9e87e78daa1f604dbe7ead516e08968, type: 3}
  - m_RefCount: 1
    m_Data: {fileID: 2835310501320596259, guid: a9e87e78daa1f604dbe7ead516e08968, type: 3}
  - m_RefCount: 1
    m_Data: {fileID: -2162836270264253553, guid: a9e87e78daa1f604dbe7ead516e08968, type: 3}
  - m_RefCount: 1
    m_Data: {fileID: 7742616497643999568, guid: a9e87e78daa1f604dbe7ead516e08968, type: 3}
  - m_RefCount: 1
    m_Data: {fileID: -2383492875174469588, guid: a9e87e78daa1f604dbe7ead516e08968, type: 3}
  - m_RefCount: 1
    m_Data: {fileID: 2823540219196795004, guid: a9e87e78daa1f604dbe7ead516e08968, type: 3}
  m_TileMatrixArray:
  - m_RefCount: 46
    m_Data:
      e00: 1
      e01: 0
      e02: 0
      e03: 0
      e10: 0
      e11: 1
      e12: 0
      e13: 0
      e20: 0
      e21: 0
      e22: 1
      e23: 0
      e30: 0
      e31: 0
      e32: 0
      e33: 1
  m_TileColorArray:
  - m_RefCount: 46
    m_Data: {r: 1, g: 1, b: 1, a: 1}
  m_TileObjectToInstantiateArray: []
  m_AnimationFrameRate: 1
  m_Color: {r: 1, g: 1, b: 1, a: 1}
  m_Origin: {x: -1, y: -11, z: 0}
  m_Size: {x: 8, y: 11, z: 1}
  m_TileAnchor: {x: 0.5, y: 0.5, z: 0}
  m_TileOrientation: 0
  m_TileOrientationMatrix:
    e00: 1
    e01: 0
    e02: 0
    e03: 0
    e10: 0
    e11: 1
    e12: 0
    e13: 0
    e20: 0
    e21: 0
    e22: 1
    e23: 0
    e30: 0
    e31: 0
    e32: 0
    e33: 1
--- !u!483693784 &1998979785004004486
TilemapRenderer:
  m_ObjectHideFlags: 0
  m_CorrespondingSourceObject: {fileID: 0}
  m_PrefabInstance: {fileID: 0}
  m_PrefabAsset: {fileID: 0}
  m_GameObject: {fileID: 9062174768955830742}
  m_Enabled: 1
  m_CastShadows: 0
  m_ReceiveShadows: 0
  m_DynamicOccludee: 0
  m_StaticShadowCaster: 0
  m_MotionVectors: 1
  m_LightProbeUsage: 0
  m_ReflectionProbeUsage: 0
  m_RayTracingMode: 0
  m_RayTraceProcedural: 0
  m_RenderingLayerMask: 1
  m_RendererPriority: 0
  m_Materials:
  - {fileID: 10754, guid: 0000000000000000f000000000000000, type: 0}
  m_StaticBatchInfo:
    firstSubMesh: 0
    subMeshCount: 0
  m_StaticBatchRoot: {fileID: 0}
  m_ProbeAnchor: {fileID: 0}
  m_LightProbeVolumeOverride: {fileID: 0}
  m_ScaleInLightmap: 1
  m_ReceiveGI: 1
  m_PreserveUVs: 0
  m_IgnoreNormalsForChartDetection: 0
  m_ImportantGI: 0
  m_StitchLightmapSeams: 1
  m_SelectedEditorRenderState: 0
  m_MinimumChartSize: 4
  m_AutoUVMaxDistance: 0.5
  m_AutoUVMaxAngle: 89
  m_LightmapParameters: {fileID: 0}
  m_SortingLayerID: 0
  m_SortingLayer: 0
  m_SortingOrder: 0
  m_ChunkSize: {x: 32, y: 32, z: 32}
  m_ChunkCullingBounds: {x: 0.03125, y: 0.03125, z: 0}
  m_MaxChunkCount: 16
  m_MaxFrameAge: 16
  m_SortOrder: 0
  m_Mode: 0
  m_DetectChunkCullingBounds: 0
  m_MaskInteraction: 0
--- !u!114 &4598088936224241009
MonoBehaviour:
  m_ObjectHideFlags: 0
  m_CorrespondingSourceObject: {fileID: 0}
  m_PrefabInstance: {fileID: 0}
  m_PrefabAsset: {fileID: 0}
  m_GameObject: {fileID: 0}
  m_Enabled: 1
  m_EditorHideFlags: 0
  m_Script: {fileID: 12395, guid: 0000000000000000e000000000000000, type: 0}
  m_Name: Palette Settings
  m_EditorClassIdentifier: 
  cellSizing: 0
  m_TransparencySortMode: 0
  m_TransparencySortAxis: {x: 0, y: 0, z: 1}
